[gd_scene load_steps=5 format=2]

[ext_resource path="res://player.tscn" type="PackedScene" id=1]
[ext_resource path="res://icon.png" type="Texture" id=2]

[sub_resource type="RectangleShape2D" id=1]
extents = Vector2( 32, 32 )

[sub_resource type="RectangleShape2D" id=2]
extents = Vector2( 512, 32 )

[node name="Node2D" type="Node2D"]
__meta__ = {
"_edit_lock_": true
}

[node name="KinematicBody2D" parent="." instance=ExtResource( 1 )]
position = Vector2( 288, 368 )
collision_layer = 0

[node name="Node" type="Node" parent="."]

[node name="StaticBody2D6" type="StaticBody2D" parent="Node"]
position = Vector2( 1312, 384 )
__meta__ = {
"_edit_group_": true
}

[node name="Sprite" type="Sprite" parent="Node/StaticBody2D6"]
texture = ExtResource( 2 )

[node name="CollisionShape2D" type="CollisionShape2D" parent="Node/StaticBody2D6"]
shape = SubResource( 1 )

[node name="StaticBody2D5" type="StaticBody2D" parent="Node"]
position = Vector2( 1376, 320 )
__meta__ = {
"_edit_group_": true
}

[node name="Sprite" type="Sprite" parent="Node/StaticBody2D5"]
texture = ExtResource( 2 )

[node name="CollisionShape2D" type="CollisionShape2D" parent="Node/StaticBody2D5"]
shape = SubResource( 1 )

[node name="StaticBody2D7" type="StaticBody2D" parent="Node"]
position = Vector2( 992, 480 )
__meta__ = {
"_edit_group_": true
}

[node name="Sprite" type="Sprite" parent="Node/StaticBody2D7"]
texture = ExtResource( 2 )

[node name="CollisionShape2D" type="CollisionShape2D" parent="Node/StaticBody2D7"]
shape = SubResource( 1 )

[node name="StaticBody2D22" type="StaticBody2D" parent="Node"]
position = Vector2( 992, 544 )
__meta__ = {
"_edit_group_": true
}

[node name="Sprite" type="Sprite" parent="Node/StaticBody2D22"]
texture = ExtResource( 2 )

[node name="CollisionShape2D" type="CollisionShape2D" parent="Node/StaticBody2D22"]
shape = SubResource( 1 )

[node name="StaticBody2D4" type="StaticBody2D" parent="Node"]
position = Vector2( 1248, 456 )
__meta__ = {
"_edit_group_": true
}

[node name="Sprite" type="Sprite" parent="Node/StaticBody2D4"]
texture = ExtResource( 2 )

[node name="CollisionShape2D" type="CollisionShape2D" parent="Node/StaticBody2D4"]
shape = SubResource( 1 )

[node name="StaticBody2D2" type="StaticBody2D" parent="Node"]
position = Vector2( 608, 288 )
__meta__ = {
"_edit_group_": true
}

[node name="Sprite" type="Sprite" parent="Node/StaticBody2D2"]
texture = ExtResource( 2 )

[node name="CollisionShape2D" type="CollisionShape2D" parent="Node/StaticBody2D2"]
shape = SubResource( 1 )

[node name="StaticBody2D8" type="StaticBody2D" parent="Node"]
position = Vector2( 608, 224 )
__meta__ = {
"_edit_group_": true
}

[node name="Sprite" type="Sprite" parent="Node/StaticBody2D8"]
texture = ExtResource( 2 )

[node name="CollisionShape2D" type="CollisionShape2D" parent="Node/StaticBody2D8"]
shape = SubResource( 1 )

[node name="StaticBody2D9" type="StaticBody2D" parent="Node"]
position = Vector2( 608, 160 )
__meta__ = {
"_edit_group_": true
}

[node name="Sprite" type="Sprite" parent="Node/StaticBody2D9"]
texture = ExtResource( 2 )

[node name="CollisionShape2D" type="CollisionShape2D" parent="Node/StaticBody2D9"]
shape = SubResource( 1 )

[node name="StaticBody2D10" type="StaticBody2D" parent="Node"]
position = Vector2( 608, 96 )
__meta__ = {
"_edit_group_": true
}

[node name="Sprite" type="Sprite" parent="Node/StaticBody2D10"]
texture = ExtResource( 2 )

[node name="CollisionShape2D" type="CollisionShape2D" parent="Node/StaticBody2D10"]
shape = SubResource( 1 )

[node name="StaticBody2D11" type="StaticBody2D" parent="Node"]
position = Vector2( 608, 32 )
__meta__ = {
"_edit_group_": true
}

[node name="Sprite" type="Sprite" parent="Node/StaticBody2D11"]
texture = ExtResource( 2 )

[node name="CollisionShape2D" type="CollisionShape2D" parent="Node/StaticBody2D11"]
shape = SubResource( 1 )

[node name="StaticBody2D12" type="StaticBody2D" parent="Node"]
position = Vector2( 608, 32 )
__meta__ = {
"_edit_group_": true
}

[node name="Sprite" type="Sprite" parent="Node/StaticBody2D12"]
texture = ExtResource( 2 )

[node name="CollisionShape2D" type="CollisionShape2D" parent="Node/StaticBody2D12"]
shape = SubResource( 1 )

[node name="StaticBody2D13" type="StaticBody2D" parent="Node"]
position = Vector2( 256, 160 )
__meta__ = {
"_edit_group_": true
}

[node name="Sprite" type="Sprite" parent="Node/StaticBody2D13"]
texture = ExtResource( 2 )

[node name="CollisionShape2D" type="CollisionShape2D" parent="Node/StaticBody2D13"]
shape = SubResource( 1 )

[node name="StaticBody2D14" type="StaticBody2D" parent="Node"]
position = Vector2( 96, -256 )
__meta__ = {
"_edit_group_": true
}

[node name="Sprite" type="Sprite" parent="Node/StaticBody2D14"]
texture = ExtResource( 2 )

[node name="CollisionShape2D" type="CollisionShape2D" parent="Node/StaticBody2D14"]
shape = SubResource( 1 )

[node name="StaticBody2D19" type="StaticBody2D" parent="Node"]
position = Vector2( 384, -352 )
__meta__ = {
"_edit_group_": true
}

[node name="Sprite" type="Sprite" parent="Node/StaticBody2D19"]
texture = ExtResource( 2 )

[node name="CollisionShape2D" type="CollisionShape2D" parent="Node/StaticBody2D19"]
shape = SubResource( 1 )

[node name="StaticBody2D21" type="StaticBody2D" parent="Node"]
position = Vector2( 448, -352 )
__meta__ = {
"_edit_group_": true
}

[node name="Sprite" type="Sprite" parent="Node/StaticBody2D21"]
texture = ExtResource( 2 )

[node name="CollisionShape2D" type="CollisionShape2D" parent="Node/StaticBody2D21"]
shape = SubResource( 1 )

[node name="StaticBody2D20" type="StaticBody2D" parent="Node"]
position = Vector2( 320, -352 )
__meta__ = {
"_edit_group_": true
}

[node name="Sprite" type="Sprite" parent="Node/StaticBody2D20"]
texture = ExtResource( 2 )

[node name="CollisionShape2D" type="CollisionShape2D" parent="Node/StaticBody2D20"]
shape = SubResource( 1 )

[node name="StaticBody2D15" type="StaticBody2D" parent="Node"]
position = Vector2( 96, -192 )
__meta__ = {
"_edit_group_": true
}

[node name="Sprite" type="Sprite" parent="Node/StaticBody2D15"]
texture = ExtResource( 2 )

[node name="CollisionShape2D" type="CollisionShape2D" parent="Node/StaticBody2D15"]
shape = SubResource( 1 )

[node name="StaticBody2D16" type="StaticBody2D" parent="Node"]
position = Vector2( 256, -32 )
__meta__ = {
"_edit_group_": true
}

[node name="Sprite" type="Sprite" parent="Node/StaticBody2D16"]
texture = ExtResource( 2 )

[node name="CollisionShape2D" type="CollisionShape2D" parent="Node/StaticBody2D16"]
shape = SubResource( 1 )

[node name="StaticBody2D17" type="StaticBody2D" parent="Node"]
position = Vector2( 256, 32 )
__meta__ = {
"_edit_group_": true
}

[node name="Sprite" type="Sprite" parent="Node/StaticBody2D17"]
texture = ExtResource( 2 )

[node name="CollisionShape2D" type="CollisionShape2D" parent="Node/StaticBody2D17"]
shape = SubResource( 1 )

[node name="StaticBody2D18" type="StaticBody2D" parent="Node"]
position = Vector2( 256, 96 )
__meta__ = {
"_edit_group_": true
}

[node name="Sprite" type="Sprite" parent="Node/StaticBody2D18"]
texture = ExtResource( 2 )

[node name="CollisionShape2D" type="CollisionShape2D" parent="Node/StaticBody2D18"]
shape = SubResource( 1 )

[node name="StaticBody2D3" type="StaticBody2D" parent="Node"]
position = Vector2( 1280, 384 )
__meta__ = {
"_edit_group_": true
}

[node name="icon" type="Sprite" parent="Node/StaticBody2D3"]
modulate = Color( 0.478431, 0, 1, 1 )
self_modulate = Color( 0.0196078, 0.196078, 1, 1 )
position = Vector2( 32, 256 )
scale = Vector2( 15.5, 1 )
texture = ExtResource( 2 )

[node name="CollisionShape2D" type="CollisionShape2D" parent="Node/StaticBody2D3"]
show_behind_parent = true
position = Vector2( 32, 256 )
shape = SubResource( 2 )

[node name="StaticBody2D" type="StaticBody2D" parent="Node"]
position = Vector2( 480, 160 )
collision_mask = 2147483649
__meta__ = {
"_edit_group_": true
}

[node name="icon" type="Sprite" parent="Node/StaticBody2D"]
modulate = Color( 1, 0, 0, 1 )
self_modulate = Color( 1, 0, 0, 1 )
position = Vector2( 32, 256 )
scale = Vector2( 15.5, 1 )
texture = ExtResource( 2 )

[node name="CollisionShape2D" type="CollisionShape2D" parent="Node/StaticBody2D"]
show_behind_parent = true
position = Vector2( 32, 256 )
shape = SubResource( 2 )
