; Engine configuration file.
; It's best edited using the editor UI and not directly,
; since the parameters that go here are not all obvious.
;
; Format:
;   [section] ; section goes between []
;   param=value ; assign values to parameters

config_version=4

_global_script_classes=[  ]
_global_script_class_icons={

}

[application]

config/name="Unnsmed prototype"
run/main_scene="res://Practice_Scene.tscn"
config/icon="res://icon.png"

[display]

window/stretch/aspect="keep"

[importer_defaults]

texture={
"compress/bptc_ldr": 0,
"compress/hdr_mode": 0,
"compress/lossy_quality": 0.7,
"compress/mode": 0,
"compress/normal_map": 0,
"detect_3d": false,
"flags/anisotropic": false,
"flags/filter": false,
"flags/mipmaps": false,
"flags/repeat": 0,
"flags/srgb": 2,
"process/HDR_as_SRGB": false,
"process/fix_alpha_border": true,
"process/invert_color": false,
"process/premult_alpha": false,
"size_limit": 0,
"stream": false,
"svg/scale": 1.0
}

[input]

ui_up={
"deadzone": 0.5,
"events": [ Object(InputEventKey,"resource_local_to_scene":false,"resource_name":"","device":0,"alt":false,"shift":false,"control":false,"meta":false,"command":false,"pressed":false,"scancode":16777232,"unicode":0,"echo":false,"script":null)
, Object(InputEventJoypadButton,"resource_local_to_scene":false,"resource_name":"","device":0,"button_index":12,"pressure":0.0,"pressed":false,"script":null)
, Object(InputEventKey,"resource_local_to_scene":false,"resource_name":"","device":0,"alt":false,"shift":false,"control":false,"meta":false,"command":false,"pressed":false,"scancode":88,"unicode":0,"echo":false,"script":null)
 ]
}
Input_ground={
"deadzone": 0.5,
"events": [ Object(InputEventKey,"resource_local_to_scene":false,"resource_name":"","device":0,"alt":false,"shift":false,"control":false,"meta":false,"command":false,"pressed":false,"scancode":90,"unicode":0,"echo":false,"script":null)
, Object(InputEventKey,"resource_local_to_scene":false,"resource_name":"","device":0,"alt":false,"shift":false,"control":false,"meta":false,"command":false,"pressed":false,"scancode":80,"unicode":0,"echo":false,"script":null)
 ]
}
Input_right={
"deadzone": 0.5,
"events": [ Object(InputEventKey,"resource_local_to_scene":false,"resource_name":"","device":0,"alt":false,"shift":false,"control":false,"meta":false,"command":false,"pressed":false,"scancode":68,"unicode":0,"echo":false,"script":null)
, Object(InputEventKey,"resource_local_to_scene":false,"resource_name":"","device":0,"alt":false,"shift":false,"control":false,"meta":false,"command":false,"pressed":false,"scancode":16777233,"unicode":0,"echo":false,"script":null)
, Object(InputEventJoypadMotion,"resource_local_to_scene":false,"resource_name":"","device":0,"axis":0,"axis_value":1.0,"script":null)
 ]
}
Input_left={
"deadzone": 0.5,
"events": [ Object(InputEventKey,"resource_local_to_scene":false,"resource_name":"","device":0,"alt":false,"shift":false,"control":false,"meta":false,"command":false,"pressed":false,"scancode":65,"unicode":0,"echo":false,"script":null)
, Object(InputEventKey,"resource_local_to_scene":false,"resource_name":"","device":0,"alt":false,"shift":false,"control":false,"meta":false,"command":false,"pressed":false,"scancode":16777231,"unicode":0,"echo":false,"script":null)
, Object(InputEventJoypadMotion,"resource_local_to_scene":false,"resource_name":"","device":0,"axis":0,"axis_value":-1.0,"script":null)
 ]
}
Input_up={
"deadzone": 0.5,
"events": [ Object(InputEventKey,"resource_local_to_scene":false,"resource_name":"","device":0,"alt":false,"shift":false,"control":false,"meta":false,"command":false,"pressed":false,"scancode":87,"unicode":0,"echo":false,"script":null)
, Object(InputEventKey,"resource_local_to_scene":false,"resource_name":"","device":0,"alt":false,"shift":false,"control":false,"meta":false,"command":false,"pressed":false,"scancode":16777232,"unicode":0,"echo":false,"script":null)
, Object(InputEventJoypadMotion,"resource_local_to_scene":false,"resource_name":"","device":0,"axis":1,"axis_value":-1.0,"script":null)
 ]
}
Input_float={
"deadzone": 0.5,
"events": [ Object(InputEventKey,"resource_local_to_scene":false,"resource_name":"","device":0,"alt":false,"shift":false,"control":false,"meta":false,"command":false,"pressed":false,"scancode":88,"unicode":0,"echo":false,"script":null)
, Object(InputEventKey,"resource_local_to_scene":false,"resource_name":"","device":0,"alt":false,"shift":false,"control":false,"meta":false,"command":false,"pressed":false,"scancode":79,"unicode":0,"echo":false,"script":null)
 ]
}
Input_down={
"deadzone": 0.5,
"events": [ Object(InputEventKey,"resource_local_to_scene":false,"resource_name":"","device":0,"alt":false,"shift":false,"control":false,"meta":false,"command":false,"pressed":false,"scancode":16777234,"unicode":0,"echo":false,"script":null)
, Object(InputEventKey,"resource_local_to_scene":false,"resource_name":"","device":0,"alt":false,"shift":false,"control":false,"meta":false,"command":false,"pressed":false,"scancode":83,"unicode":0,"echo":false,"script":null)
 ]
}
Input_dash={
"deadzone": 0.5,
"events": [ Object(InputEventKey,"resource_local_to_scene":false,"resource_name":"","device":0,"alt":false,"shift":false,"control":false,"meta":false,"command":false,"pressed":false,"scancode":67,"unicode":0,"echo":false,"script":null)
, Object(InputEventJoypadButton,"resource_local_to_scene":false,"resource_name":"","device":0,"button_index":2,"pressure":0.0,"pressed":false,"script":null)
 ]
}
Input_space={
"deadzone": 0.5,
"events": [ Object(InputEventKey,"resource_local_to_scene":false,"resource_name":"","device":0,"alt":false,"shift":false,"control":false,"meta":false,"command":false,"pressed":false,"scancode":32,"unicode":0,"echo":false,"script":null)
, Object(InputEventJoypadButton,"resource_local_to_scene":false,"resource_name":"","device":0,"button_index":0,"pressure":0.0,"pressed":false,"script":null)
 ]
}

[layer_names]

2d_physics/layer_1=false
2d_physics/layer_2="Player"
2d_physics/layer_3="Emeny"
2d_physics/layer_4="Collatbles"
2d_physics/layer_5="Obastatces"
2d_physics/layer_6="Other"
2d_physics/d=false

[rendering]

environment/default_environment="res://default_env.tres"
